Text Analysis of Hotel Reviews from Booking.com
…
The network graph shows strong connections between the top several words (friendly, staff, excellent and location, train and station).

Sentiment Analysis

One way to analyze the sentiment of a text is to consider the text as a combination of its individual words and the sentiment content of the whole text as the sum of the sentiment content of the individual words. Sentiment analysis can be done as an inner join. Three sentiment lexicons are available via the get_sentiments() function. Lets look at the words with a joy score from the NRC lexicon. What are the most common joy words?

nrcjoy <- get_sentiments("nrc") %>%
  filter(sentiment == "joy")

review_subject %>%
  semi_join(nrcjoy) %>%
  count(word, sort = TRUE)

## # A tibble: 436 x 2
##    word          n
##    <chr>     <int>
##  1 clean     17190
##  2 friendly  15401
##  3 helpful   14035
##  4 excellent  9010
##  5 perfect    5730
##  6 food       5004
##  7 lovely     3925
##  8 money      2968
##  9 beautiful  2960
## 10 wonderful  2107
## #  with 426 more rows
…
